<?xml version="1.0" encoding="utf-8"?>
<!DOCTYPE svg PUBLIC "-//W3C//DTD SVG 1.1//EN" "http://www.w3.org/Graphics/SVG/1.1/DTD/svg11.dtd">
<svg version="1.1" xmlns="http://www.w3.org/2000/svg" width="401px" height="386px" viewBox="0 0 401 386" preserveAspectRatio="xMidYMid meet">
 <g fill="#ffffff">
 </g>
 <g fill="#000000">
  <path d="M131 327.8 c0 -1.9 5.4 -12.9 9.3 -19.1 5.2 -8.1 15.3 -18.3 23.5 -23.9 6.9 -4.6 20.9 -11.4 21.8 -10.5 1 0.9 -5.8 15.1 -10.4 21.9 -8.3 12.1 -20.1 22.3 -33.7 28.8 -8.7 4.3 -10.5 4.7 -10.5 2.8z"/>
  <path d="M245.2 325.5 c-21.7 -10.4 -35.8 -26.1 -45.9 -51.2 -0.7 -1.8 15.3 5.4 21.7 9.7 12.6 8.5 22.8 20.2 29.3 33.6 6.4 13 6.2 13.4 -5.1 7.9z"/>
  <path d="M103 279.4 c-8.8 -1.1 -20.9 -3.7 -28.4 -6.1 -9.3 -2.9 -21.6 -8.2 -21.6 -9.3 0 -1 12.7 -6.2 22.9 -9.4 20.4 -6.4 48.1 -8 67.8 -3.8 11.2 2.4 25.1 7 32.7 10.9 5.8 2.9 6.2 2.5 -8.3 8.4 -15.7 6.3 -28.9 8.9 -46.6 9.3 -8.2 0.3 -16.6 0.2 -18.5 0z"/>
  <path d="M247.5 278.4 c-10.3 -1.6 -28.2 -7 -37 -11.2 -6 -2.9 -6 -2.9 -1 -5.4 7.7 -3.9 21.6 -8.6 32.8 -11 26.2 -5.5 62.7 -0.9 86.1 10.9 5.8 2.9 6 2.8 -8 8.3 -22.9 9 -49.4 12.1 -72.9 8.4z"/>
  <path d="M178 252.1 c-26.9 -10.1 -47.8 -23.9 -67.5 -44.3 -17 -17.6 -30.2 -37.6 -38.4 -58.3 -6.3 -16.1 -6.5 -15 2.1 -11.9 38.9 13.8 74.8 43.6 96.1 79.9 6.2 10.6 17.7 37.6 15.9 37.5 -0.4 -0.1 -4.1 -1.4 -8.2 -2.9z"/>
  <path d="M199 254.5 c0 -2 8.1 -20.8 13.1 -30.4 17.1 -33.1 45.8 -61 80.5 -78.4 8.8 -4.4 24.2 -10.2 25 -9.4 1 1 -2.5 10.6 -8.6 23.3 -20.5 42.6 -55.4 74.7 -99.8 91.9 -9.5 3.6 -10.2 3.8 -10.2 3z"/>
  <path d="M187.6 242 c-15.3 -33.2 -22.6 -72.6 -19.7 -107.8 1.5 -18.6 5.6 -39.1 11.4 -56.4 4.6 -13.6 12.2 -30.8 13.6 -30.8 1.2 0 8.5 16.4 12.6 28.2 8.6 24.6 11.6 41.5 12.2 68.9 0.7 29.5 -1.8 48 -10.2 73.4 -3.7 11.5 -13.6 34.5 -14.8 34.5 -0.2 0 -2.5 -4.5 -5.1 -10z"/>
 </g>
</svg>